{
    "name": "testdeploymentset",
    "checkInterval": 10000000000,
    "maxReplics": 5,
    "minReplics": 1,
    "moniterMetrics": [
        {
            "name": "connectnum",
            "upScaleValue": 20,
            "downScaleValue": 10,
            "metricsTime": 60000000000,
            "metricGeter": {
                "podHttpMetricGeter": {
                    "path": "http://${podip}:12346/connectnum"
                }
            }
        },
        {
            "name": "rand",
            "upScaleValue": 90,
            "downScaleValue": 10,
            "metricsTime": 60000000000,
            "metricGeter": {
                "openTsDBMetricGeter": {
                    "url": "http://10.19.138.198:4242/api/query",
                    "metric": "rand",
                    "tags": {
                        "host": "${podname}"
                    }
                }
            }
        },
        {
            "name": "connectnumdelete",
            "upScaleValue": 20,
            "downScaleValue": 0,
            "metricsTime": 40000000000,
            "metricGeter": {
                "podHttpMetricGeter": {
                    "path": "http://${podip}:12346/connectnum"
                }
            }
        },
        {
            "name": "randdelete",
            "upScaleValue": 90,
            "downScaleValue": 10,
            "metricsTime": 60000000000,
            "metricGeter": {
                "openTsDBMetricGeter": {
                    "url": "http://10.19.138.198:4242/api/query",
                    "metric": "rand",
                    "tags": {
                        "host": "${podname}"
                    }
                }
            }
        }
    ],
    "svcMetricSort" : [
        {
            "weight" : 1,
            "metricName" : "connectnumdelete"
        }
    ],
    "scaleUpTrigger": "connectnum ",
    "scaleDownTrigger": "connectnum",
    "canDeleteTrigger" : "connectnumdelete",
    "scaleType": "DeploymentSet",
    "scaleTemplate": {
        "deploymentSet": {
            "metadata": {
                "name": "testname",
                "namespace": "patricktest"
            },
            "spec": {
                "replicas": 1,
                "template": {
                    "metadata": {
                        "labels": {
                            "app": "testapp"
                        }
                    },
                    "spec": {
                        "containers": [
                            {
                                "name": "nginx",
                                "image": "ihub.helium.io:30100/library/testapp:v2",
                                "command": [
                                    "/server",
                                    "--serverip=10.19.138.198:4242",
                                    "--listenaddr=0.0.0.0:12345",
                                    "--putduration=10s",
                                    "--startwaitduration=10s"
                                ],
                                "resources": {
                                    "limits": {
                                        "cpu": "300m",
                                        "memory": "256Mi"
                                    },
                                    "requests": {
                                        "cpu": "300m",
                                        "memory": "256Mi"
                                    }
                                }
                            }
                        ]
                    }
                }
            }
        }
    },
    "svcPool": {
        "indexAnnotationKey": "io.enndata.appautoscale/my_svc_index",
        "svcTemplate": {
            "metadata": {
                "name": "testname",
                "namespace": "patricktest"
            },
            "spec": {
                "ports": [
                    {
                        "name": "tcp",
                        "protocol": "TCP",
                        "port": 8080,
                        "targetPort": 12345
                    }
                ],
                "selector": {
                    "app": "testapp"
                },
                "type": "NodePort"
            }
        }
    }
}
